[gd_resource type="AtlasTexture" load_steps=2 format=2]

[ext_resource path="res://Assets/Atlas_Texture/Puzzle_2/Lion_Sprites/Lion.png" type="Texture" id=1]

[resource]
atlas = ExtResource( 1 )
region = Rect2( 48, 48, 48, 48 )
