[gd_resource type="AtlasTexture" load_steps=2 format=2]

[ext_resource path="res://Assets/Atlas_Texture/DoorAnimation/Door_2/RPG Maker VX - Gate I by Ayene-chan on DeviantArt.png" type="Texture" id=1]

[resource]
atlas = ExtResource( 1 )
region = Rect2( 0, 128, 96, 64 )
