[gd_resource type="AtlasTexture" load_steps=2 format=2]

[ext_resource path="res://Assets/Atlas_Texture/UI/Button_Dialogue_Box/Interaction_Marker/bubble emotes july update.png" type="Texture" id=1]

[resource]
atlas = ExtResource( 1 )
region = Rect2( 16, 192, 16, 16 )
