[gd_resource type="AtlasTexture" load_steps=2 format=2]

[ext_resource path="res://Assets/Atlas_Texture/Itens/Props/Props/trees_plants_rocks_0.png" type="Texture" id=1]

[resource]
atlas = ExtResource( 1 )
region = Rect2( 159, 137, 28, 49 )
