[gd_resource type="AtlasTexture" load_steps=2 format=2]

[ext_resource path="res://Assets/Atlas_Texture/DoorAnimation/doorAnimatedSprites.png" type="Texture" id=1]

[resource]
atlas = ExtResource( 1 )
region = Rect2( 256, 0, 64, 65 )
