[gd_resource type="AtlasTexture" load_steps=2 format=2]

[ext_resource path="res://Assets/Background Assets/Puzzle_1_Atlas/Puzzle_1.png" type="Texture" id=1]

[resource]
atlas = ExtResource( 1 )
region = Rect2( 4, 692, 368, 372 )
