[gd_resource type="AtlasTexture" load_steps=2 format=2]

[ext_resource path="res://Assets/Itens/Key/Blue/key-blue.png" type="Texture" id=1]

[resource]
atlas = ExtResource( 1 )
region = Rect2( 10, 4, 13, 28 )
