[gd_scene load_steps=3 format=2]

[ext_resource path="res://cenas_puzzle/physics_box/Area_de_caixa1.tscn" type="PackedScene" id=1]
[ext_resource path="res://cenas_puzzle/physics_box/Area_de_caixa3.gd" type="Script" id=2]

[node name="Area_de_caixa3" instance=ExtResource( 1 )]
script = ExtResource( 2 )
