[gd_resource type="AtlasTexture" load_steps=2 format=2]

[ext_resource path="res://Assets/Atlas_Texture/Itens/Objects_Ridig.png" type="Texture" id=1]

[resource]
atlas = ExtResource( 1 )
region = Rect2( 528, 246, 48, 41 )
