[gd_resource type="AtlasTexture" load_steps=2 format=2]

[ext_resource path="res://Assets/Itens/Key/key-white.png" type="Texture" id=1]

[resource]
atlas = ExtResource( 1 )
region = Rect2( 170, 3, 11, 28 )
