[gd_scene load_steps=4 format=2]

[ext_resource path="res://TesteCollision.gd" type="Script" id=1]

[sub_resource type="CircleShape2D" id=1]

[sub_resource type="CircleShape2D" id=2]
radius = 52.1396

[node name="Node2D" type="KinematicBody2D"]

[node name="CollisionShape2D" type="CollisionShape2D" parent="."]
shape = SubResource( 1 )

[node name="Area2D" type="Area2D" parent="CollisionShape2D"]

[node name="CollisionShape2D" type="CollisionShape2D" parent="CollisionShape2D/Area2D"]
shape = SubResource( 2 )
one_way_collision_margin = 0.0
script = ExtResource( 1 )
