[gd_scene load_steps=3 format=2]

[ext_resource path="res://Inimigo_Afastar.tscn" type="PackedScene" id=1]
[ext_resource path="res://PlayerMain.tscn" type="PackedScene" id=2]

[node name="Node2D" type="Node2D"]

[node name="Player" parent="." instance=ExtResource( 2 )]
position = Vector2( 359.305, -20.8571 )

[node name="Inimigo" parent="." instance=ExtResource( 1 )]
position = Vector2( 115.711, -14.3889 )
