[gd_resource type="AtlasTexture" load_steps=2 format=2]

[ext_resource path="res://Assets/Background Assets/Spaceship items @ PixelJoint_com.png" type="Texture" id=1]

[resource]
atlas = ExtResource( 1 )
region = Rect2( 84, 47, 31, 32 )
