[gd_resource type="AtlasTexture" load_steps=2 format=2]

[ext_resource path="res://Assets/BossAssets/BigBadWolf.png" type="Texture" id=1]

[resource]
atlas = ExtResource( 1 )
region = Rect2( 358, 619, 155, 161 )
